﻿  Using 'git status' to determine working set for adaptive non-unity build (D:\Unreal_Engen_4\My_Projects\MySnakeGame).
  Parsing headers for MySnakeGameEditor
    Running UnrealHeaderTool "D:\Unreal_Engen_4\My_Projects\MySnakeGame\MySnakeGame.uproject" "D:\Unreal_Engen_4\My_Projects\MySnakeGame\Intermediate\Build\Win64\MySnakeGameEditor\Development\MySnakeGameEditor.uhtmanifest" -LogCmds="loginit warning, logexit warning, logdatabase error" -Unattended -WarningsAsErrors -abslog="C:\Users\comp\AppData\Local\UnrealBuildTool\Log_UHT.txt" -installed
  LogInit: Display: Loading text-based GConfig....
  Reflection code generated for MySnakeGameEditor in 3,5258882 seconds
  Building MySnakeGameEditor...
  Using Visual Studio 2019 14.29.30146 toolchain (C:\Program Files (x86)\Microsoft Visual Studio\2019\Community\VC\Tools\MSVC\14.29.30133) and Windows 10.0.20348.0 SDK (C:\Program Files (x86)\Windows Kits\10).
  Building 6 actions with 8 processes...
    [1/6] Apple.cpp
D:\Unreal_Engen_4\My_Projects\MySnakeGame\Source\MySnakeGame\Apple.cpp(33): error C4458: объявление "PlayerPawn" скрывает член класса
    D:\Unreal_Engen_4\My_Projects\MySnakeGame\Source\MySnakeGame\Apple.h(24): note:  см. объявление "AApple::PlayerPawn"
D:\Unreal_Engen_4\My_Projects\MySnakeGame\Source\MySnakeGame\Apple.cpp(33): error C2065: AddRandonLocationFood: необъявленный идентификатор
    [2/6] Apple.gen.cpp
    [3/6] PlayerPawnBase.cpp
C:\Program Files (x86)\Microsoft Visual Studio\2019\Community\MSBuild\Microsoft\VC\v160\Microsoft.MakeFile.Targets(45,5): error MSB3073: выход из команды "D:\Unreal_Engen_4\UE_4\UE_4.27\Engine\Build\BatchFiles\Build.bat MySnakeGameEditor Win64 Development -Project="D:\Unreal_Engen_4\My_Projects\MySnakeGame\MySnakeGame.uproject" -WaitMutex -FromMsBuild" с кодом 6.
